…
``` r
tidycensus::census_api_key("API KEY GOES HERE")
targets::tar_make()
```

Survey responses used in our analysis are obtained with:

``` r
targets::tar_read(pfas_analysis_data)
```

    ## # A tibble: 1,100 × 38
    ##    SEX   AGEP  RACE5 SCHL  RACE2 Q6    Q9_6  Q11_6 Q16   Q17     Q18 Q19_1 Q19_2
    ##    <fct> <fct> <fct> <fct> <fct> <fct> <fct> <fct> <fct> <fct> <dbl> <fct> <fct>
    ##  1 Male  25:34 Asian Bach… Non-… Filt… No    Slig… No    I th…    88 Very… Mode…
    ##  2 Fema… 65+   Whit… High… White Filt… No    Slig… No    I've…    51 Not … Not …
    ##  3 Fema… 18:24 Whit… Mast… White Bott… No    Not … No    I th…    57 Very… Mode…
    ##  4 Fema… 45:54 Two … Other Non-… Bott… No    Extr… Not … I've…    92 Not … Slig…
    ##  5 Fema… 35:44 Whit… Mast… White Filt… No    Mode… Not … I've…    45 Mode… Mode…
    ##  6 Fema… 35:44 Whit… High… White Bott… No    Mode… Not … I th…    62 Slig… Slig…
    ##  7 Fema… 55:64 Whit… High… White Unfi… No    Slig… Not … I've…    33 Not … Slig…
    ##  8 Fema… 35:44 Blac… High… Non-… Bott… No    Very… No    I th…    85 Mode… Mode…
    ##  9 Male  45:54 Two … Doct… Non-… Unfi… No    Not … No    I've…    44 Very… Slig…
    ## 10 Fema… 35:44 Blac… High… Non-… Filt… No    Mode… No    I th…    70 Mode… Slig…
    ## # ℹ 1,090 more rows
    ## # ℹ 25 more variables: Q19_3 <fct>, Q19_4 <fct>, Q19_5 <fct>, Q19_6 <fct>,
    ## #   Q19_7 <fct>, Q19_8 <fct>, Q19_9 <fct>, Q19_10 <fct>, Q19_11 <fct>,
    ## #   Q19_12 <fct>, Q19_13 <fct>, Q20_1 <fct>, Q20_2 <fct>, Q20_3 <fct>,
    ## #   Q20_4 <fct>, Q20_5 <fct>, Q20_6 <fct>, Q20_7 <fct>, Q20_8 <fct>,
    ## #   Q20_9 <fct>, Q20_10 <fct>, Q20_11 <fct>, Q20_12 <fct>, Q20_13 <fct>,
    ## #   SEX_NM <fct>
…
